…
    ## Joining, by = "word"

Looking at word counts:

``` r
tidyAItwt0 %>% count(word, sort = TRUE)
```

    ## # A tibble: 11,372 x 2
    ##    word                n
    ##    <chr>           <int>
    ##  1 rt               6602
    ##  2 machinelearning  1375
    ##  3 gt                755
    ##  4 bigdata           752
    ##  5 future            685
    ##  6 read              653
    ##  7 business          652
    ##  8 amp               594
    ##  9 3                 506
    ## 10 artificial        479
    ## # ... with 11,362 more rows
…
``` r
tidyAItwt0 <- AItwtdata %>%
  select(text) %>%
  mutate(line = row_number()) %>%
  unnest_tokens(word, text) %>%
  anti_join(custom2_stop_words)
```

    ## Joining, by = "word"

``` r
tidyAItwt0 %>% count(word, sort = TRUE)
```

    ## # A tibble: 11,350 x 2
    ##    word            n
    ##    <chr>       <int>
    ##  1 future        685
    ##  2 read          653
    ##  3 business      652
    ##  4 world         479
    ##  5 ipfconline1   477
    ##  6 google        457
    ##  7 human         403
    ##  8 technology    390
    ##  9 data          382
    ## 10 fintech       370
    ## # ... with 11,340 more rows
…
Word pairs occurring most frequently in the corpus
==================================================

``` r
twtAIbigrams<- AItwtdata %>%
select(text) %>%
mutate(line = row_number()) %>%
unnest_tokens(bigram, text, token = "ngrams", n = 2)

twtAIbigrams %>% 
  count(bigram, sort = TRUE)
```

    ## # A tibble: 44,760 x 2
    ##    bigram                         n
    ##    <chr>                      <int>
    ##  1 artificialintelligence and   840
    ##  2 of the                       629
    ##  3 of artificialintelligence    593
    ##  4 artificialintelligence to    587
    ##  5 in the                       554
    ##  6 artificialintelligence in    544
    ##  7 the future                   506
    ##  8 and artificialintelligence   468
    ##  9 how artificialintelligence   453
    ## 10 read more                    451
    ## # ... with 44,750 more rows
Separating the bigrams allows the filtering of stop words from word1 and/or word2, and provides the opportunity to filter for specific words. Using the prior custom stop word list developed for single words provides more meaningful bigrams.

``` r
AIbigram_sep <- twtAIbigrams %>% 
  separate(bigram, c("word1", "word2"), sep = " ")

AIbigram_filter0 <- AIbigram_sep %>% 
  filter(!word1 %in% stop_words$word) %>% 
  filter(!word2 %in% stop_words$word)

AIbigram_filter0 %>% 
  count(word1, word2, sort = TRUE)
```

    ## # A tibble: 18,726 x 3
    ##    word1                  word2                      n
    ##    <chr>                  <chr>                  <int>
    ##  1 rt                     ipfconline1              442
    ##  2 artificialintelligence ai                       401
    ##  3 ai                     machinelearning          384
    ##  4 gt                     gt                       341
    ##  5 rt                     iainljbrown              332
    ##  6 artificialintelligence program                  304
    ##  7 3                      000                      297
    ##  8 call                   artificialintelligence   297
    ##  9 000                    employees                296
    ## 10 employees              call                     296
    ## # ... with 18,716 more rows

``` r
AIbigram_filter1 <- AIbigram_sep %>% 
  filter(!word1 %in% custom3_stop_words$word) %>% 
  filter(!word2 %in% custom3_stop_words$word)

AIbigram_filter1 %>% 
  count(word1, word2, sort = TRUE)
```

    ## # A tibble: 12,683 x 3
    ##    word1      word2          n
    ##    <chr>      <chr>      <int>
    ##  1 employees  call         296
    ##  2 program    evil         296
    ##  3 business   support      167
    ##  4 process    automation   161
    ##  5 robotic    process      159
    ##  6 industrial revolution   131
    ##  7 medical    imaging      122
    ##  8 deliver    real         114
    ##  9 gal        deplorable    96
    ## 10 internet   users         94
    ## # ... with 12,673 more rows
…
Exploring the corpus for additional negating words, such as "no," "never," and "without.""

``` r
negation_words <- c("not", "no", "never", "without")

AIbigram_neg <- AIbigram_sep %>% 
  filter(word1 %in% negation_words) %>% 
  inner_join(get_sentiments("afinn"), by = c(word2 = "word")) %>% 
count(word1, word2, score, sort = TRUE) %>% 
  ungroup()

AIbigram_neg
```

    ## # A tibble: 21 x 4
    ##    word1   word2      score     n
    ##    <chr>   <chr>      <int> <int>
    ##  1 not     like           2    15
    ##  2 without harming       -2    10
    ##  3 not     alive          1     8
    ##  4 not     destroying    -3     6
    ##  5 no      good           3     4
    ##  6 no      threat        -2     4
    ##  7 no      hiding        -1     2
    ##  8 not     lagging       -2     2
    ##  9 no      bad           -3     1
    ## 10 no      joke           2     1
    ## # ... with 11 more rows
…
